0
SECTION
2
HEADER
9
$INSUNITS
70
4
9
$ACADVER
1
AC1014
9
$HANDSEED
5
FFFF
0
ENDSEC
0
SECTION
2
TABLES
0
TABLE
2
VPORT
5
8
100
AcDbSymbolTable
0
ENDTAB
0
TABLE
2
LTYPE
5
5
100
AcDbSymbolTable
0
LTYPE
5
14
100
AcDbSymbolTableRecord
100
AcDbLinetypeTableRecord
2
BYBLOCK
70
0
0
LTYPE
5
15
100
AcDbSymbolTableRecord
100
AcDbLinetypeTableRecord
2
BYLAYER
70
0
0
ENDTAB
0
TABLE
2
LAYER
5
2
100
AcDbSymbolTable
70
2
0
LAYER
5
50
100
AcDbSymbolTableRecord
100
AcDbLayerTableRecord
2
0
70
0
6
CONTINUOUS
0
ENDTAB
0
TABLE
2
STYLE
5
3
100
AcDbSymbolTable
70
1
0
STYLE
5
11
100
AcDbSymbolTableRecord
100
AcDbTextStyleTableRecord
2
STANDARD
70
0
0
ENDTAB
0
TABLE
2
VIEW
5
6
100
AcDbSymbolTable
70
0
0
ENDTAB
0
TABLE
2
UCS
5
7
100
AcDbSymbolTable
70
0
0
ENDTAB
0
TABLE
2
APPID
5
9
100
AcDbSymbolTable
70
2
0
APPID
5
12
100
AcDbSymbolTableRecord
100
AcDbRegAppTableRecord
2
ACAD
70
0
0
ENDTAB
0
TABLE
2
DIMSTYLE
5
A
100
AcDbSymbolTable
70
1
0
ENDTAB
0
TABLE
2
BLOCK_RECORD
5
1
100
AcDbSymbolTable
70
1
0
BLOCK_RECORD
5
1F
100
AcDbSymbolTableRecord
100
AcDbBlockTableRecord
2
*MODEL_SPACE
0
BLOCK_RECORD
5
1B
100
AcDbSymbolTableRecord
100
AcDbBlockTableRecord
2
*PAPER_SPACE
0
ENDTAB
0
ENDSEC
0
SECTION
2
BLOCKS
0
BLOCK
5
20
100
AcDbEntity
100
AcDbBlockBegin
2
*MODEL_SPACE
0
ENDBLK
5
21
100
AcDbEntity
100
AcDbBlockEnd
0
BLOCK
5
1C
100
AcDbEntity
100
AcDbBlockBegin
2
*PAPER_SPACE
0
ENDBLK
5
1D
100
AcDbEntity
100
AcDbBlockEnd
0
ENDSEC
0
SECTION
2
ENTITIES
0
LWPOLYLINE
5
100
100
AcDbEntity
8
0
100
AcDbPolyline
90
50
70
1
43
0.0
10
-83.349999999999994
20
12.49999999999995
10
-83.349999999999994
20
25
10
-66.949999999999989
20
24.99999999999995
10
-66.949999999999989
20
12.49999999999995
10
-66.650000000000006
20
12.49999999999995
10
-66.650000000000006
20
25
10
-50.249999999999993
20
24.99999999999995
10
-50.249999999999993
20
12.49999999999995
10
-49.950000000000003
20
12.49999999999995
10
-49.950000000000003
20
25
10
-33.549999999999997
20
24.99999999999995
10
-33.549999999999997
20
12.49999999999995
10
-33.25
20
12.49999999999995
10
-33.25
20
25
10
-16.849999999999998
20
24.99999999999995
10
-16.849999999999998
20
12.49999999999995
10
-16.550000000000001
20
12.49999999999995
10
-16.550000000000001
20
25
10
-0.14999999999999999
20
24.99999999999995
10
-0.14999999999999999
20
12.49999999999995
10
0.14999999999999999
20
12.49999999999995
10
0.14999999999999902
20
25
10
16.550000000000001
20
24.99999999999995
10
16.550000000000001
20
12.49999999999995
10
16.849999999999998
20
12.49999999999995
10
16.849999999999998
20
25
10
33.25
20
24.99999999999995
10
33.25
20
12.49999999999995
10
33.549999999999997
20
12.49999999999995
10
33.549999999999997
20
25
10
49.950000000000003
20
24.99999999999995
10
49.950000000000003
20
12.49999999999995
10
50.249999999999993
20
12.49999999999995
10
50.249999999999993
20
25
10
66.650000000000006
20
24.99999999999995
10
66.650000000000006
20
12.49999999999995
10
66.949999999999989
20
12.49999999999995
10
66.949999999999989
20
25
10
83.349999999999994
20
24.99999999999995
10
83.349999999999994
20
12.49999999999995
10
83.650000000000006
20
12.49999999999995
10
83.650000000000006
20
25
10
86.989999999999995
20
24.999999999999972
10
109.99000000000001
20
5
10
109.99000000000001
20
0
10
-109.99000000000001
20
0
10
-109.99000000000001
20
5
10
-86.989999999999995
20
24.999999999999929
10
-83.650000000000006
20
24.99999999999995
10
-83.650000000000006
20
12.49999999999995
0
ENDSEC
0
SECTION
2
OBJECTS
0
DICTIONARY
5
C
100
AcDbDictionary
3
ACAD_GROUP
350
D
3
ACAD_MLINESTYLE
350
17
0
DICTIONARY
5
D
100
AcDbDictionary
0
DICTIONARY
5
1A
330
C
100
AcDbDictionary
0
DICTIONARY
5
17
100
AcDbDictionary
0
ENDSEC
0
EOF
